<svg xmlns="http://www.w3.org/2000/svg" xmlns:xlink="http://www.w3.org/1999/xlink"
     fill="#23bfb9" viewBox="0 0 160 160">
    <g transform="rotate(0 80 80) skewX(40) skewY(0) scale(1 0.3) translate(-124 343)" fill="#353535">
        <path id="plus" stroke="#000" d="M60,20 h40 l0,40 l40,0 l0,40 l-40,0 v40 h-40 v-40 h-40 v-40 h40 z">
            <animateTransform attributeName="transform" attributeType="xml" type="rotate" from="360 80 80" to="0 80 80" dur="15s" repeatCount="indefinite"/>
            <animate attributeName="d" dur="5s" repeatCount="indefinite" fill="freeze"
                     keyTimes="0; 0.3; 0.5; 0.8; 1"
                     calcMode="linear"
                     values="M60,20 h40 l0,40
                        l40,0 l0,40 l-40,0
                        l0,40 l-40,0 l0,-40
                        l-40,0 l0,-40 l40,0 z;
                        M60,20 h40 l0,40
                        l40,0 l0,40 l-40,0
                        l0,40 l-40,0 l0,-40
                        l-40,0 l0,-40 l40,0 z;

                        M80,40 h0 l20,20
                        l20,20 l0,0 l-20,20
                        l-20,20 l0,0 l-20,-20
                        l-20,-20 l0,0 l20,-20 z;
                        M80,40 h0 l20,20
                        l20,20 l0,0 l-20,20
                        l-20,20 l0,0 l-20,-20
                        l-20,-20 l0,0 l20,-20 z;

                        M60,20 h40 l0,40
                        l40,0 l0,40 l-40,0
                        l0,40 l-40,0 l0,-40
                        l-40,0 l0,-40 l40,0 z;"
            />
        </path>
        <circle id="circle_0" cx="40" cy="40" r="10" transform="rotate(0 80 80)">
            <animateTransform attributeName="transform" attributeType="xml" type="rotate" from="360 80 80" to="0 80 80" dur="15s" repeatCount="indefinite"/>
        </circle>
        <circle id="circle_1" cx="120" cy="40" r="10" transform="rotate(0 80 80)">
            <animateTransform attributeName="transform" attributeType="xml" type="rotate" from="360 80 80" to="0 80 80" dur="15s" repeatCount="indefinite"/>
        </circle>
        <circle id="circle_2" cx="120" cy="120" r="10" transform="rotate(0 80 80)">
            <animateTransform attributeName="transform" attributeType="xml" type="rotate" from="360 80 80" to="0 80 80" dur="15s" repeatCount="indefinite"/>
        </circle>
        <circle id="circle_3" cx="40" cy="120" r="10" transform="rotate(0 80 80)">
            <animateTransform attributeName="transform" attributeType="xml" type="rotate" from="360 80 80" to="0 80 80" dur="15s" repeatCount="indefinite"/>
        </circle>
    </g>
    <use xlink:href="#plus"/>
    <use xlink:href="#circle_0"/>
    <use xlink:href="#circle_1"/>
    <use xlink:href="#circle_2"/>
    <use xlink:href="#circle_3"/>
</svg>